"Question","Question Type","Option One","Option Two","Option Three","Option Four","Correct Answer"
"question in cat one?","cat1",8,7,6,5,8
"question in cat two?","cat2",4,5,6,7,5
"question in cat three?","cat3",4,5,6,7,6
"question in cat four?","cat4",4,5,6,7,7
"question in cat five?","cat5",4,5,6,7,8
"question in cat six?","cat6",5,5,6,7,5
